test.vcd
$date
	Sat Aug 13 18:05:36 2016
$end
$version
	ModelSim Version 10.4a
$end
$timescale
	1ns
$end

$scope module datapath_tb $end
$var reg 12 ! A [11:0] $end
$var reg 12 " B [11:0] $end
$var reg 12 # C [11:0] $end
$var wire 1 $ L $end
$var wire 1 % E $end
$var wire 1 & G $end
$var integer 32 ' bits $end
$var integer 32 ( i $end
$var integer 32 ) j $end
$var integer 32 * k $end

$scope module data $end
$var wire 1 % E $end
$var wire 1 $ L $end
$var wire 1 & G $end
$var wire 1 + A [11] $end
$var wire 1 , A [10] $end
$var wire 1 - A [9] $end
$var wire 1 . A [8] $end
$var wire 1 / A [7] $end
$var wire 1 0 A [6] $end
$var wire 1 1 A [5] $end
$var wire 1 2 A [4] $end
$var wire 1 3 A [3] $end
$var wire 1 4 A [2] $end
$var wire 1 5 A [1] $end
$var wire 1 6 A [0] $end
$var wire 1 7 B [11] $end
$var wire 1 8 B [10] $end
$var wire 1 9 B [9] $end
$var wire 1 : B [8] $end
$var wire 1 ; B [7] $end
$var wire 1 < B [6] $end
$var wire 1 = B [5] $end
$var wire 1 > B [4] $end
$var wire 1 ? B [3] $end
$var wire 1 @ B [2] $end
$var wire 1 A B [1] $end
$var wire 1 B B [0] $end
$var wire 1 C C [11] $end
$var wire 1 D C [10] $end
$var wire 1 E C [9] $end
$var wire 1 F C [8] $end
$var wire 1 G C [7] $end
$var wire 1 H C [6] $end
$var wire 1 I C [5] $end
$var wire 1 J C [4] $end
$var wire 1 K C [3] $end
$var wire 1 L C [2] $end
$var wire 1 M C [1] $end
$var wire 1 N C [0] $end
$var wire 1 O Carry $end
$var wire 1 P S [11] $end
$var wire 1 Q S [10] $end
$var wire 1 R S [9] $end
$var wire 1 S S [8] $end
$var wire 1 T S [7] $end
$var wire 1 U S [6] $end
$var wire 1 V S [5] $end
$var wire 1 W S [4] $end
$var wire 1 X S [3] $end
$var wire 1 Y S [2] $end
$var wire 1 Z S [1] $end
$var wire 1 [ S [0] $end

$scope module adder $end
$var reg 12 \ S [11:0] $end
$var reg 1 ] Cout $end
$var wire 1 + A [11] $end
$var wire 1 , A [10] $end
$var wire 1 - A [9] $end
$var wire 1 . A [8] $end
$var wire 1 / A [7] $end
$var wire 1 0 A [6] $end
$var wire 1 1 A [5] $end
$var wire 1 2 A [4] $end
$var wire 1 3 A [3] $end
$var wire 1 4 A [2] $end
$var wire 1 5 A [1] $end
$var wire 1 6 A [0] $end
$var wire 1 7 B [11] $end
$var wire 1 8 B [10] $end
$var wire 1 9 B [9] $end
$var wire 1 : B [8] $end
$var wire 1 ; B [7] $end
$var wire 1 < B [6] $end
$var wire 1 = B [5] $end
$var wire 1 > B [4] $end
$var wire 1 ? B [3] $end
$var wire 1 @ B [2] $end
$var wire 1 A B [1] $end
$var wire 1 B B [0] $end
$var reg 13 ^ w [12:0] $end
$upscope $end

$scope module comp $end
$var reg 1 _ E $end
$var reg 1 ` G $end
$var reg 1 a L $end
$var wire 1 P A [11] $end
$var wire 1 Q A [10] $end
$var wire 1 R A [9] $end
$var wire 1 S A [8] $end
$var wire 1 T A [7] $end
$var wire 1 U A [6] $end
$var wire 1 V A [5] $end
$var wire 1 W A [4] $end
$var wire 1 X A [3] $end
$var wire 1 Y A [2] $end
$var wire 1 Z A [1] $end
$var wire 1 [ A [0] $end
$var wire 1 C B [11] $end
$var wire 1 D B [10] $end
$var wire 1 E B [9] $end
$var wire 1 F B [8] $end
$var wire 1 G B [7] $end
$var wire 1 H B [6] $end
$var wire 1 I B [5] $end
$var wire 1 J B [4] $end
$var wire 1 K B [3] $end
$var wire 1 L B [2] $end
$var wire 1 M B [1] $end
$var wire 1 N B [0] $end
$var wire 1 O Cin $end
$var reg 3 b w [2:0] $end
$upscope $end
$upscope $end
$upscope $end
$enddefinitions $end
#0
$dumpvars
b1 !
b0 "
b0 #
b1 \
0]
b1 ^
0_
1`
0a
b1 b
b1100 '
b0 (
bx )
b0 *
0$
0%
1&
0O
1[
0Z
0Y
0X
0W
0V
0U
0T
0S
0R
0Q
0P
0N
0M
0L
0K
0J
0I
0H
0G
0F
0E
0D
0C
0B
0A
0@
0?
0>
0=
0<
0;
0:
09
08
07
16
05
04
03
02
01
00
0/
0.
0-
0,
0+
$end
#10
b0 )
b1 "
1B
b10 ^
b10 \
0[
1Z
#20
b1 #
1N
#30
b1 *
b10 #
0N
1M
b10 b
1_
0`
1%
0&
#40
b10 *
b100 #
0M
1L
b100 b
1a
0_
1$
0%
#50
b11 *
b1000 #
0L
1K
#60
b100 *
b10000 #
0K
1J
#70
b101 *
b100000 #
0J
1I
#80
b110 *
b1000000 #
0I
1H
#90
b111 *
b10000000 #
0H
1G
#100
b1000 *
b100000000 #
0G
1F
#110
b1001 *
b1000000000 #
0F
1E
#120
b1010 *
b10000000000 #
0E
1D
#130
b1011 *
b100000000000 #
0D
1C
#140
b1100 *
b0 #
0C
b1 b
0a
1`
0$
1&
#150
b1101 *
b1 )
b10 "
0B
1A
b11 ^
b11 \
1[
#160
b0 *
b1 #
1N
#170
b1 *
b10 #
0N
1M
#180
b10 *
b100 #
0M
1L
b100 b
1a
0`
1$
0&
#190
b11 *
b1000 #
0L
1K
#200
b100 *
b10000 #
0K
1J
#210
b101 *
b100000 #
0J
1I
#220
b110 *
b1000000 #
0I
1H
#230
b111 *
b10000000 #
0H
1G
#240
b1000 *
b100000000 #
0G
1F
#250
b1001 *
b1000000000 #
0F
1E
#260
b1010 *
b10000000000 #
0E
1D
#270
b1011 *
b100000000000 #
0D
1C
#280
b1100 *
b0 #
0C
b1 b
0a
1`
0$
1&
#290
b1101 *
b10 )
b100 "
0A
1@
b101 ^
b101 \
0Z
1Y
#300
b0 *
b1 #
1N
#310
b1 *
b10 #
0N
1M
#320
b10 *
b100 #
0M
1L
#330
b11 *
b1000 #
0L
1K
b100 b
1a
0`
1$
0&
#340
b100 *
b10000 #
0K
1J
#350
b101 *
b100000 #
0J
1I
#360
b110 *
b1000000 #
0I
1H
#370
b111 *
b10000000 #
0H
1G
#380
b1000 *
b100000000 #
0G
1F
#390
b1001 *
b1000000000 #
0F
1E
#400
b1010 *
b10000000000 #
0E
1D
#410
b1011 *
b100000000000 #
0D
1C
#420
b1100 *
b0 #
0C
b1 b
0a
1`
0$
1&
#430
b1101 *
b11 )
b1000 "
0@
1?
b1001 ^
b1001 \
0Y
1X
#440
b0 *
b1 #
1N
#450
b1 *
b10 #
0N
1M
#460
b10 *
b100 #
0M
1L
#470
b11 *
b1000 #
0L
1K
#480
b100 *
b10000 #
0K
1J
b100 b
1a
0`
1$
0&
#490
b101 *
b100000 #
0J
1I
#500
b110 *
b1000000 #
0I
1H
#510
b111 *
b10000000 #
0H
1G
#520
b1000 *
b100000000 #
0G
1F
#530
b1001 *
b1000000000 #
0F
1E
#540
b1010 *
b10000000000 #
0E
1D
#550
b1011 *
b100000000000 #
0D
1C
#560
b1100 *
b0 #
0C
b1 b
0a
1`
0$
1&
#570
b1101 *
b100 )
b10000 "
0?
1>
b10001 ^
b10001 \
0X
1W
#580
b0 *
b1 #
1N
#590
b1 *
b10 #
0N
1M
#600
b10 *
b100 #
0M
1L
#610
b11 *
b1000 #
0L
1K
#620
b100 *
b10000 #
0K
1J
#630
b101 *
b100000 #
0J
1I
b100 b
1a
0`
1$
0&
#640
b110 *
b1000000 #
0I
1H
#650
b111 *
b10000000 #
0H
1G
#660
b1000 *
b100000000 #
0G
1F
#670
b1001 *
b1000000000 #
0F
1E
#680
b1010 *
b10000000000 #
0E
1D
#690
b1011 *
b100000000000 #
0D
1C
#700
b1100 *
b0 #
0C
b1 b
0a
1`
0$
1&
#710
b1101 *
b101 )
b100000 "
0>
1=
b100001 ^
b100001 \
0W
1V
#720
b0 *
b1 #
1N
#730
b1 *
b10 #
0N
1M
#740
b10 *
b100 #
0M
1L
#750
b11 *
b1000 #
0L
1K
#760
b100 *
b10000 #
0K
1J
#770
b101 *
b100000 #
0J
1I
#780
b110 *
b1000000 #
0I
1H
b100 b
1a
0`
1$
0&
#790
b111 *
b10000000 #
0H
1G
#800
b1000 *
b100000000 #
0G
1F
#810
b1001 *
b1000000000 #
0F
1E
#820
b1010 *
b10000000000 #
0E
1D
#830
b1011 *
b100000000000 #
0D
1C
#840
b1100 *
b0 #
0C
b1 b
0a
1`
0$
1&
#850
b1101 *
b110 )
b1000000 "
0=
1<
b1000001 ^
b1000001 \
0V
1U
#860
b0 *
b1 #
1N
#870
b1 *
b10 #
0N
1M
#880
b10 *
b100 #
0M
1L
#890
b11 *
b1000 #
0L
1K
#900
b100 *
b10000 #
0K
1J
#910
b101 *
b100000 #
0J
1I
#920
b110 *
b1000000 #
0I
1H
#930
b111 *
b10000000 #
0H
1G
b100 b
1a
0`
1$
0&
#940
b1000 *
b100000000 #
0G
1F
#950
b1001 *
b1000000000 #
0F
1E
#960
b1010 *
b10000000000 #
0E
1D
#970
b1011 *
b100000000000 #
0D
1C
#980
b1100 *
b0 #
0C
b1 b
0a
1`
0$
1&
#990
b1101 *
b111 )
b10000000 "
0<
1;
b10000001 ^
b10000001 \
0U
1T
#1000
b0 *
b1 #
1N
#1010
b1 *
b10 #
0N
1M
#1020
b10 *
b100 #
0M
1L
#1030
b11 *
b1000 #
0L
1K
#1040
b100 *
b10000 #
0K
1J
#1050
b101 *
b100000 #
0J
1I
#1060
b110 *
b1000000 #
0I
1H
#1070
b111 *
b10000000 #
0H
1G
#1080
b1000 *
b100000000 #
0G
1F
b100 b
1a
0`
1$
0&
#1090
b1001 *
b1000000000 #
0F
1E
#1100
b1010 *
b10000000000 #
0E
1D
#1110
b1011 *
b100000000000 #
0D
1C
#1120
b1100 *
b0 #
0C
b1 b
0a
1`
0$
1&
#1130
b1101 *
b1000 )
b100000000 "
0;
1:
b100000001 ^
b100000001 \
0T
1S
#1140
b0 *
b1 #
1N
#1150
b1 *
b10 #
0N
1M
#1160
b10 *
b100 #
0M
1L
#1170
b11 *
b1000 #
0L
1K
#1180
b100 *
b10000 #
0K
1J
#1190
b101 *
b100000 #
0J
1I
#1200
b110 *
b1000000 #
0I
1H
#1210
b111 *
b10000000 #
0H
1G
#1220
b1000 *
b100000000 #
0G
1F
#1230
b1001 *
b1000000000 #
0F
1E
b100 b
1a
0`
1$
0&
#1240
b1010 *
b10000000000 #
0E
1D
#1250
b1011 *
b100000000000 #
0D
1C
#1260
b1100 *
b0 #
0C
b1 b
0a
1`
0$
1&
#1270
b1101 *
b1001 )
b1000000000 "
0:
19
b1000000001 ^
b1000000001 \
0S
1R
#1280
b0 *
b1 #
1N
#1290
b1 *
b10 #
0N
1M
#1300
b10 *
b100 #
0M
1L
#1310
b11 *
b1000 #
0L
1K
#1320
b100 *
b10000 #
0K
1J
#1330
b101 *
b100000 #
0J
1I
#1340
b110 *
b1000000 #
0I
1H
#1350
b111 *
b10000000 #
0H
1G
#1360
b1000 *
b100000000 #
0G
1F
#1370
b1001 *
b1000000000 #
0F
1E
#1380
b1010 *
b10000000000 #
0E
1D
b100 b
1a
0`
1$
0&
#1390
b1011 *
b100000000000 #
0D
1C
#1400
b1100 *
b0 #
0C
b1 b
0a
1`
0$
1&
#1410
b1101 *
b1010 )
b10000000000 "
09
18
b10000000001 ^
b10000000001 \
0R
1Q
#1420
b0 *
b1 #
1N
#1430
b1 *
b10 #
0N
1M
#1440
b10 *
b100 #
0M
1L
#1450
b11 *
b1000 #
0L
1K
#1460
b100 *
b10000 #
0K
1J
#1470
b101 *
b100000 #
0J
1I
#1480
b110 *
b1000000 #
0I
1H
#1490
b111 *
b10000000 #
0H
1G
#1500
b1000 *
b100000000 #
0G
1F
#1510
b1001 *
b1000000000 #
0F
1E
#1520
b1010 *
b10000000000 #
0E
1D
#1530
b1011 *
b100000000000 #
0D
1C
b100 b
1a
0`
1$
0&
#1540
b1100 *
b0 #
0C
b1 b
0a
1`
0$
1&
#1550
b1101 *
b1011 )
b100000000000 "
08
17
b100000000001 ^
b100000000001 \
0Q
1P
#1560
b0 *
b1 #
1N
#1570
b1 *
b10 #
0N
1M
#1580
b10 *
b100 #
0M
1L
#1590
b11 *
b1000 #
0L
1K
#1600
b100 *
b10000 #
0K
1J
#1610
b101 *
b100000 #
0J
1I
#1620
b110 *
b1000000 #
0I
1H
#1630
b111 *
b10000000 #
0H
1G
#1640
b1000 *
b100000000 #
0G
1F
#1650
b1001 *
b1000000000 #
0F
1E
#1660
b1010 *
b10000000000 #
0E
1D
#1670
b1011 *
b100000000000 #
0D
1C
#1680
b1100 *
b0 #
0C
#1690
b1101 *
b1100 )
b0 "
07
b1 ^
b1 \
0P
#1700
b0 *
b1 #
1N
b10 b
1_
0`
1%
0&
#1710
b1 *
b10 #
0N
1M
b100 b
1a
0_
1$
0%
#1720
b10 *
b100 #
0M
1L
#1730
b11 *
b1000 #
0L
1K
#1740
b100 *
b10000 #
0K
1J
#1750
b101 *
b100000 #
0J
1I
#1760
b110 *
b1000000 #
0I
1H
#1770
b111 *
b10000000 #
0H
1G
#1780
b1000 *
b100000000 #
0G
1F
#1790
b1001 *
b1000000000 #
0F
1E
#1800
b1010 *
b10000000000 #
0E
1D
#1810
b1011 *
b100000000000 #
0D
1C
#1820
b1100 *
b0 #
0C
b1 b
0a
1`
0$
1&
#1830
b1101 *
b1101 )
b1 (
b10 !
06
15
b10 ^
b10 \
0[
1Z
#1840
b0 )
b1 "
1B
b11 ^
b11 \
1[
#1850
b0 *
b1 #
1N
#1860
b1 *
b10 #
0N
1M
#1870
b10 *
b100 #
0M
1L
b100 b
1a
0`
1$
0&
#1880
b11 *
b1000 #
0L
1K
#1890
b100 *
b10000 #
0K
1J
#1900
b101 *
b100000 #
0J
1I
#1910
b110 *
b1000000 #
0I
1H
#1920
b111 *
b10000000 #
0H
1G
#1930
b1000 *
b100000000 #
0G
1F
#1940
b1001 *
b1000000000 #
0F
1E
#1950
b1010 *
b10000000000 #
0E
1D
#1960
b1011 *
b100000000000 #
0D
1C
#1970
b1100 *
b0 #
0C
b1 b
0a
1`
0$
1&
#1980
b1101 *
b1 )
b10 "
0B
1A
b100 ^
b100 \
0[
0Z
1Y
#1990
b0 *
b1 #
1N
#2000
b1 *
b10 #
0N
1M
#2010
b10 *
b100 #
0M
1L
b10 b
1_
0`
1%
0&
#2020
b11 *
b1000 #
0L
1K
b100 b
1a
0_
1$
0%
#2030
b100 *
b10000 #
0K
1J
#2040
b101 *
b100000 #
0J
1I
#2050
b110 *
b1000000 #
0I
1H
#2060
b111 *
b10000000 #
0H
1G
#2070
b1000 *
b100000000 #
0G
1F
#2080
b1001 *
b1000000000 #
0F
1E
#2090
b1010 *
b10000000000 #
0E
1D
#2100
b1011 *
b100000000000 #
0D
1C
#2110
b1100 *
b0 #
0C
b1 b
0a
1`
0$
1&
#2120
b1101 *
b10 )
b100 "
0A
1@
b110 ^
b110 \
1Z
#2130
b0 *
b1 #
1N
#2140
b1 *
b10 #
0N
1M
#2150
b10 *
b100 #
0M
1L
#2160
b11 *
b1000 #
0L
1K
b100 b
1a
0`
1$
0&
#2170
b100 *
b10000 #
0K
1J
#2180
b101 *
b100000 #
0J
1I
#2190
b110 *
b1000000 #
0I
1H
#2200
b111 *
b10000000 #
0H
1G
#2210
b1000 *
b100000000 #
0G
1F
#2220
b1001 *
b1000000000 #
0F
1E
#2230
b1010 *
b10000000000 #
0E
1D
#2240
b1011 *
b100000000000 #
0D
1C
#2250
b1100 *
b0 #
0C
b1 b
0a
1`
0$
1&
#2260
b1101 *
b11 )
b1000 "
0@
1?
b1010 ^
b1010 \
0Y
1X
#2270
b0 *
b1 #
1N
#2280
b1 *
b10 #
0N
1M
#2290
b10 *
b100 #
0M
1L
#2300
b11 *
b1000 #
0L
1K
#2310
b100 *
b10000 #
0K
1J
b100 b
1a
0`
1$
0&
#2320
b101 *
b100000 #
0J
1I
#2330
b110 *
b1000000 #
0I
1H
#2340
b111 *
b10000000 #
0H
1G
#2350
b1000 *
b100000000 #
0G
1F
#2360
b1001 *
b1000000000 #
0F
1E
#2370
b1010 *
b10000000000 #
0E
1D
#2380
b1011 *
b100000000000 #
0D
1C
#2390
b1100 *
b0 #
0C
b1 b
0a
1`
0$
1&
#2400
b1101 *
b100 )
b10000 "
0?
1>
b10010 ^
b10010 \
0X
1W
#2410
b0 *
b1 #
1N
#2420
b1 *
b10 #
0N
1M
#2430
b10 *
b100 #
0M
1L
#2440
b11 *
b1000 #
0L
1K
#2450
b100 *
b10000 #
0K
1J
#2460
b101 *
b100000 #
0J
1I
b100 b
1a
0`
1$
0&
#2470
b110 *
b1000000 #
0I
1H
#2480
b111 *
b10000000 #
0H
1G
#2490
b1000 *
b100000000 #
0G
1F
#2500
b1001 *
b1000000000 #
0F
1E
#2510
b1010 *
b10000000000 #
0E
1D
#2520
b1011 *
b100000000000 #
0D
1C
#2530
b1100 *
b0 #
0C
b1 b
0a
1`
0$
1&
#2540
b1101 *
b101 )
b100000 "
0>
1=
b100010 ^
b100010 \
0W
1V
#2550
b0 *
b1 #
1N
#2560
b1 *
b10 #
0N
1M
#2570
b10 *
b100 #
0M
1L
#2580
b11 *
b1000 #
0L
1K
#2590
b100 *
b10000 #
0K
1J
#2600
b101 *
b100000 #
0J
1I
#2610
b110 *
b1000000 #
0I
1H
b100 b
1a
0`
1$
0&
#2620
b111 *
b10000000 #
0H
1G
#2630
b1000 *
b100000000 #
0G
1F
#2640
b1001 *
b1000000000 #
0F
1E
#2650
b1010 *
b10000000000 #
0E
1D
#2660
b1011 *
b100000000000 #
0D
1C
#2670
b1100 *
b0 #
0C
b1 b
0a
1`
0$
1&
#2680
b1101 *
b110 )
b1000000 "
0=
1<
b1000010 ^
b1000010 \
0V
1U
#2690
b0 *
b1 #
1N
#2700
b1 *
b10 #
0N
1M
#2710
b10 *
b100 #
0M
1L
#2720
b11 *
b1000 #
0L
1K
#2730
b100 *
b10000 #
0K
1J
#2740
b101 *
b100000 #
0J
1I
#2750
b110 *
b1000000 #
0I
1H
#2760
b111 *
b10000000 #
0H
1G
b100 b
1a
0`
1$
0&
#2770
b1000 *
b100000000 #
0G
1F
#2780
b1001 *
b1000000000 #
0F
1E
#2790
b1010 *
b10000000000 #
0E
1D
#2800
b1011 *
b100000000000 #
0D
1C
#2810
b1100 *
b0 #
0C
b1 b
0a
1`
0$
1&
#2820
b1101 *
b111 )
b10000000 "
0<
1;
b10000010 ^
b10000010 \
0U
1T
#2830
b0 *
b1 #
1N
#2840
b1 *
b10 #
0N
1M
#2850
b10 *
b100 #
0M
1L
#2860
b11 *
b1000 #
0L
1K
#2870
b100 *
b10000 #
0K
1J
#2880
b101 *
b100000 #
0J
1I
#2890
b110 *
b1000000 #
0I
1H
#2900
b111 *
b10000000 #
0H
1G
#2910
b1000 *
b100000000 #
0G
1F
b100 b
1a
0`
1$
0&
#2920
b1001 *
b1000000000 #
0F
1E
#2930
b1010 *
b10000000000 #
0E
1D
#2940
b1011 *
b100000000000 #
0D
1C
#2950
b1100 *
b0 #
0C
b1 b
0a
1`
0$
1&
#2960
b1101 *
b1000 )
b100000000 "
0;
1:
b100000010 ^
b100000010 \
0T
1S
#2970
b0 *
b1 #
1N
#2980
b1 *
b10 #
0N
1M
#2990
b10 *
b100 #
0M
1L
#3000
b11 *
b1000 #
0L
1K
#3010
b100 *
b10000 #
0K
1J
#3020
b101 *
b100000 #
0J
1I
#3030
b110 *
b1000000 #
0I
1H
#3040
b111 *
b10000000 #
0H
1G
#3050
b1000 *
b100000000 #
0G
1F
#3060
b1001 *
b1000000000 #
0F
1E
b100 b
1a
0`
1$
0&
#3070
b1010 *
b10000000000 #
0E
1D
#3080
b1011 *
b100000000000 #
0D
1C
#3090
b1100 *
b0 #
0C
b1 b
0a
1`
0$
1&
#3100
b1101 *
b1001 )
b1000000000 "
0:
19
b1000000010 ^
b1000000010 \
0S
1R
#3110
b0 *
b1 #
1N
#3120
b1 *
b10 #
0N
1M
#3130
b10 *
b100 #
0M
1L
#3140
b11 *
b1000 #
0L
1K
#3150
b100 *
b10000 #
0K
1J
#3160
b101 *
b100000 #
0J
1I
#3170
b110 *
b1000000 #
0I
1H
#3180
b111 *
b10000000 #
0H
1G
#3190
b1000 *
b100000000 #
0G
1F
#3200
b1001 *
b1000000000 #
0F
1E
#3210
b1010 *
b10000000000 #
0E
1D
b100 b
1a
0`
1$
0&
#3220
b1011 *
b100000000000 #
0D
1C
#3230
b1100 *
b0 #
0C
b1 b
0a
1`
0$
1&
#3240
b1101 *
b1010 )
b10000000000 "
09
18
b10000000010 ^
b10000000010 \
0R
1Q
#3250
b0 *
b1 #
1N
#3260
b1 *
b10 #
0N
1M
#3270
b10 *
b100 #
0M
1L
#3280
b11 *
b1000 #
0L
1K
#3290
b100 *
b10000 #
0K
1J
#3300
b101 *
b100000 #
0J
1I
#3310
b110 *
b1000000 #
0I
1H
#3320
b111 *
b10000000 #
0H
1G
#3330
b1000 *
b100000000 #
0G
1F
#3340
b1001 *
b1000000000 #
0F
1E
#3350
b1010 *
b10000000000 #
0E
1D
#3360
b1011 *
b100000000000 #
0D
1C
b100 b
1a
0`
1$
0&
#3370
b1100 *
b0 #
0C
b1 b
0a
1`
0$
1&
#3380
b1101 *
b1011 )
b100000000000 "
08
17
b100000000010 ^
b100000000010 \
0Q
1P
#3390
b0 *
b1 #
1N
#3400
b1 *
b10 #
0N
1M
#3410
b10 *
b100 #
0M
1L
#3420
b11 *
b1000 #
0L
1K
#3430
b100 *
b10000 #
0K
1J
#3440
b101 *
b100000 #
0J
1I
#3450
b110 *
b1000000 #
0I
1H
#3460
b111 *
b10000000 #
0H
1G
#3470
b1000 *
b100000000 #
0G
1F
#3480
b1001 *
b1000000000 #
0F
1E
#3490
b1010 *
b10000000000 #
0E
1D
#3500
b1011 *
b100000000000 #
0D
1C
#3510
b1100 *
b0 #
0C
#3520
b1101 *
b1100 )
b0 "
07
b10 ^
b10 \
0P
#3530
b0 *
b1 #
1N
#3540
b1 *
b10 #
0N
1M
b10 b
1_
0`
1%
0&
#3550
b10 *
b100 #
0M
1L
b100 b
1a
0_
1$
0%
#3560
b11 *
b1000 #
0L
1K
#3570
b100 *
b10000 #
0K
1J
#3580
b101 *
b100000 #
0J
1I
#3590
b110 *
b1000000 #
0I
1H
#3600
b111 *
b10000000 #
0H
1G
#3610
b1000 *
b100000000 #
0G
1F
#3620
b1001 *
b1000000000 #
0F
1E
#3630
b1010 *
b10000000000 #
0E
1D
#3640
b1011 *
b100000000000 #
0D
1C
#3650
b1100 *
b0 #
0C
b1 b
0a
1`
0$
1&
#3660
b1101 *
b1101 )
b10 (
b100 !
05
14
b100 ^
b100 \
0Z
1Y
#3670
b0 )
b1 "
1B
b101 ^
b101 \
1[
#3680
b0 *
b1 #
1N
#3690
b1 *
b10 #
0N
1M
#3700
b10 *
b100 #
0M
1L
#3710
b11 *
b1000 #
0L
1K
b100 b
1a
0`
1$
0&
#3720
b100 *
b10000 #
0K
1J
#3730
b101 *
b100000 #
0J
1I
#3740
b110 *
b1000000 #
0I
1H
#3750
b111 *
b10000000 #
0H
1G
#3760
b1000 *
b100000000 #
0G
1F
#3770
b1001 *
b1000000000 #
0F
1E
#3780
b1010 *
b10000000000 #
0E
1D
#3790
b1011 *
b100000000000 #
0D
1C
#3800
b1100 *
b0 #
0C
b1 b
0a
1`
0$
1&
#3810
b1101 *
b1 )
b10 "
0B
1A
b110 ^
b110 \
0[
1Z
#3820
b0 *
b1 #
1N
#3830
b1 *
b10 #
0N
1M
#3840
b10 *
b100 #
0M
1L
#3850
b11 *
b1000 #
0L
1K
b100 b
1a
0`
1$
0&
#3860
b100 *
b10000 #
0K
1J
#3870
b101 *
b100000 #
0J
1I
#3880
b110 *
b1000000 #
0I
1H
#3890
b111 *
b10000000 #
0H
1G
#3900
b1000 *
b100000000 #
0G
1F
#3910
b1001 *
b1000000000 #
0F
1E
#3920
b1010 *
b10000000000 #
0E
1D
#3930
b1011 *
b100000000000 #
0D
1C
#3940
b1100 *
b0 #
0C
b1 b
0a
1`
0$
1&
#3950
b1101 *
b10 )
b100 "
0A
1@
b1000 ^
b1000 \
0Z
0Y
1X
#3960
b0 *
b1 #
1N
#3970
b1 *
b10 #
0N
1M
#3980
b10 *
b100 #
0M
1L
#3990
b11 *
b1000 #
0L
1K
b10 b
1_
0`
1%
0&
#4000
b100 *
b10000 #
0K
1J
b100 b
1a
0_
1$
0%
#4010
b101 *
b100000 #
0J
1I
#4020
b110 *
b1000000 #
0I
1H
#4030
b111 *
b10000000 #
0H
1G
#4040
b1000 *
b100000000 #
0G
1F
#4050
b1001 *
b1000000000 #
0F
1E
#4060
b1010 *
b10000000000 #
0E
1D
#4070
b1011 *
b100000000000 #
0D
1C
#4080
b1100 *
b0 #
0C
b1 b
0a
1`
0$
1&
#4090
b1101 *
b11 )
b1000 "
0@
1?
b1100 ^
b1100 \
1Y
#4100
b0 *
b1 #
1N
#4110
b1 *
b10 #
0N
1M
#4120
b10 *
b100 #
0M
1L
#4130
b11 *
b1000 #
0L
1K
#4140
b100 *
b10000 #
0K
1J
b100 b
1a
0`
1$
0&
#4150
b101 *
b100000 #
0J
1I
#4160
b110 *
b1000000 #
0I
1H
#4170
b111 *
b10000000 #
0H
1G
#4180
b1000 *
b100000000 #
0G
1F
#4190
b1001 *
b1000000000 #
0F
1E
#4200
b1010 *
b10000000000 #
0E
1D
#4210
b1011 *
b100000000000 #
0D
1C
#4220
b1100 *
b0 #
0C
b1 b
0a
1`
0$
1&
#4230
b1101 *
b100 )
b10000 "
0?
1>
b10100 ^
b10100 \
0X
1W
#4240
b0 *
b1 #
1N
#4250
b1 *
b10 #
0N
1M
#4260
b10 *
b100 #
0M
1L
#4270
b11 *
b1000 #
0L
1K
#4280
b100 *
b10000 #
0K
1J
#4290
b101 *
b100000 #
0J
1I
b100 b
1a
0`
1$
0&
#4300
b110 *
b1000000 #
0I
1H
#4310
b111 *
b10000000 #
0H
1G
#4320
b1000 *
b100000000 #
0G
1F
#4330
b1001 *
b1000000000 #
0F
1E
#4340
b1010 *
b10000000000 #
0E
1D
#4350
b1011 *
b100000000000 #
0D
1C
#4360
b1100 *
b0 #
0C
b1 b
0a
1`
0$
1&
#4370
b1101 *
b101 )
b100000 "
0>
1=
b100100 ^
b100100 \
0W
1V
#4380
b0 *
b1 #
1N
#4390
b1 *
b10 #
0N
1M
#4400
b10 *
b100 #
0M
1L
#4410
b11 *
b1000 #
0L
1K
#4420
b100 *
b10000 #
0K
1J
#4430
b101 *
b100000 #
0J
1I
#4440
b110 *
b1000000 #
0I
1H
b100 b
1a
0`
1$
0&
#4450
b111 *
b10000000 #
0H
1G
#4460
b1000 *
b100000000 #
0G
1F
#4470
b1001 *
b1000000000 #
0F
1E
#4480
b1010 *
b10000000000 #
0E
1D
#4490
b1011 *
b100000000000 #
0D
1C
#4500
b1100 *
b0 #
0C
b1 b
0a
1`
0$
1&
#4510
b1101 *
b110 )
b1000000 "
0=
1<
b1000100 ^
b1000100 \
0V
1U
#4520
b0 *
b1 #
1N
#4530
b1 *
b10 #
0N
1M
#4540
b10 *
b100 #
0M
1L
#4550
b11 *
b1000 #
0L
1K
#4560
b100 *
b10000 #
0K
1J
#4570
b101 *
b100000 #
0J
1I
#4580
b110 *
b1000000 #
0I
1H
#4590
b111 *
b10000000 #
0H
1G
b100 b
1a
0`
1$
0&
#4600
b1000 *
b100000000 #
0G
1F
#4610
b1001 *
b1000000000 #
0F
1E
#4620
b1010 *
b10000000000 #
0E
1D
#4630
b1011 *
b100000000000 #
0D
1C
#4640
b1100 *
b0 #
0C
b1 b
0a
1`
0$
1&
#4650
b1101 *
b111 )
b10000000 "
0<
1;
b10000100 ^
b10000100 \
0U
1T
#4660
b0 *
b1 #
1N
#4670
b1 *
b10 #
0N
1M
#4680
b10 *
b100 #
0M
1L
#4690
b11 *
b1000 #
0L
1K
#4700
b100 *
b10000 #
0K
1J
#4710
b101 *
b100000 #
0J
1I
#4720
b110 *
b1000000 #
0I
1H
#4730
b111 *
b10000000 #
0H
1G
#4740
b1000 *
b100000000 #
0G
1F
b100 b
1a
0`
1$
0&
#4750
b1001 *
b1000000000 #
0F
1E
#4760
b1010 *
b10000000000 #
0E
1D
#4770
b1011 *
b100000000000 #
0D
1C
#4780
b1100 *
b0 #
0C
b1 b
0a
1`
0$
1&
#4790
b1101 *
b1000 )
b100000000 "
0;
1:
b100000100 ^
b100000100 \
0T
1S
#4800
b0 *
b1 #
1N
#4810
b1 *
b10 #
0N
1M
#4820
b10 *
b100 #
0M
1L
#4830
b11 *
b1000 #
0L
1K
#4840
b100 *
b10000 #
0K
1J
#4850
b101 *
b100000 #
0J
1I
#4860
b110 *
b1000000 #
0I
1H
#4870
b111 *
b10000000 #
0H
1G
#4880
b1000 *
b100000000 #
0G
1F
#4890
b1001 *
b1000000000 #
0F
1E
b100 b
1a
0`
1$
0&
#4900
b1010 *
b10000000000 #
0E
1D
#4910
b1011 *
b100000000000 #
0D
1C
#4920
b1100 *
b0 #
0C
b1 b
0a
1`
0$
1&
#4930
b1101 *
b1001 )
b1000000000 "
0:
19
b1000000100 ^
b1000000100 \
0S
1R
#4940
b0 *
b1 #
1N
#4950
b1 *
b10 #
0N
1M
#4960
b10 *
b100 #
0M
1L
#4970
b11 *
b1000 #
0L
1K
#4980
b100 *
b10000 #
0K
1J
#4990
b101 *
b100000 #
0J
1I
#5000
b110 *
b1000000 #
0I
1H
#5010
b111 *
b10000000 #
0H
1G
#5020
b1000 *
b100000000 #
0G
1F
#5030
b1001 *
b1000000000 #
0F
1E
#5040
b1010 *
b10000000000 #
0E
1D
b100 b
1a
0`
1$
0&
#5050
b1011 *
b100000000000 #
0D
1C
