HW2/dump.vcd
$date
	Thu Aug 04 11:29:19 2016
$end
$version
	ModelSim Version 10.4a
$end
$timescale
	1ns
$end

$scope module adder16_tb $end
$var reg 16 ! A [15:0] $end
$var reg 16 " B [15:0] $end
$var reg 1 # Cin $end
$var wire 1 $ S [15] $end
$var wire 1 % S [14] $end
$var wire 1 & S [13] $end
$var wire 1 ' S [12] $end
$var wire 1 ( S [11] $end
$var wire 1 ) S [10] $end
$var wire 1 * S [9] $end
$var wire 1 + S [8] $end
$var wire 1 , S [7] $end
$var wire 1 - S [6] $end
$var wire 1 . S [5] $end
$var wire 1 / S [4] $end
$var wire 1 0 S [3] $end
$var wire 1 1 S [2] $end
$var wire 1 2 S [1] $end
$var wire 1 3 S [0] $end
$var wire 1 4 Cout $end
$var integer 32 5 bits $end
$var integer 32 6 i $end
$var integer 32 7 j $end
$var integer 32 8 k $end

$scope module add16 $end
$var wire 1 9 A [15] $end
$var wire 1 : A [14] $end
$var wire 1 ; A [13] $end
$var wire 1 < A [12] $end
$var wire 1 = A [11] $end
$var wire 1 > A [10] $end
$var wire 1 ? A [9] $end
$var wire 1 @ A [8] $end
$var wire 1 A A [7] $end
$var wire 1 B A [6] $end
$var wire 1 C A [5] $end
$var wire 1 D A [4] $end
$var wire 1 E A [3] $end
$var wire 1 F A [2] $end
$var wire 1 G A [1] $end
$var wire 1 H A [0] $end
$var wire 1 I B [15] $end
$var wire 1 J B [14] $end
$var wire 1 K B [13] $end
$var wire 1 L B [12] $end
$var wire 1 M B [11] $end
$var wire 1 N B [10] $end
$var wire 1 O B [9] $end
$var wire 1 P B [8] $end
$var wire 1 Q B [7] $end
$var wire 1 R B [6] $end
$var wire 1 S B [5] $end
$var wire 1 T B [4] $end
$var wire 1 U B [3] $end
$var wire 1 V B [2] $end
$var wire 1 W B [1] $end
$var wire 1 X B [0] $end
$var wire 1 Y Cin $end
$var wire 1 $ S [15] $end
$var wire 1 % S [14] $end
$var wire 1 & S [13] $end
$var wire 1 ' S [12] $end
$var wire 1 ( S [11] $end
$var wire 1 ) S [10] $end
$var wire 1 * S [9] $end
$var wire 1 + S [8] $end
$var wire 1 , S [7] $end
$var wire 1 - S [6] $end
$var wire 1 . S [5] $end
$var wire 1 / S [4] $end
$var wire 1 0 S [3] $end
$var wire 1 1 S [2] $end
$var wire 1 2 S [1] $end
$var wire 1 3 S [0] $end
$var wire 1 4 Cout $end
$var wire 1 Z C [15] $end
$var wire 1 [ C [14] $end
$var wire 1 \ C [13] $end
$var wire 1 ] C [12] $end
$var wire 1 ^ C [11] $end
$var wire 1 _ C [10] $end
$var wire 1 ` C [9] $end
$var wire 1 a C [8] $end
$var wire 1 b C [7] $end
$var wire 1 c C [6] $end
$var wire 1 d C [5] $end
$var wire 1 e C [4] $end
$var wire 1 f C [3] $end
$var wire 1 g C [2] $end
$var wire 1 h C [1] $end
$var wire 1 i C [0] $end

$scope module add0 $end
$var wire 1 H A $end
$var wire 1 X B $end
$var wire 1 Y Cin $end
$var wire 1 3 S $end
$var wire 1 h Cout $end
$var wire 1 j s0 $end
$var wire 1 k s1 $end
$var wire 1 l s2 $end
$upscope $end

$scope module add1 $end
$var wire 1 G A $end
$var wire 1 W B $end
$var wire 1 h Cin $end
$var wire 1 2 S $end
$var wire 1 g Cout $end
$var wire 1 m s0 $end
$var wire 1 n s1 $end
$var wire 1 o s2 $end
$upscope $end

$scope module add2 $end
$var wire 1 F A $end
$var wire 1 V B $end
$var wire 1 g Cin $end
$var wire 1 1 S $end
$var wire 1 f Cout $end
$var wire 1 p s0 $end
$var wire 1 q s1 $end
$var wire 1 r s2 $end
$upscope $end

$scope module add3 $end
$var wire 1 E A $end
$var wire 1 U B $end
$var wire 1 f Cin $end
$var wire 1 0 S $end
$var wire 1 e Cout $end
$var wire 1 s s0 $end
$var wire 1 t s1 $end
$var wire 1 u s2 $end
$upscope $end

$scope module add4 $end
$var wire 1 D A $end
$var wire 1 T B $end
$var wire 1 e Cin $end
$var wire 1 / S $end
$var wire 1 d Cout $end
$var wire 1 v s0 $end
$var wire 1 w s1 $end
$var wire 1 x s2 $end
$upscope $end

$scope module add5 $end
$var wire 1 C A $end
$var wire 1 S B $end
$var wire 1 d Cin $end
$var wire 1 . S $end
$var wire 1 c Cout $end
$var wire 1 y s0 $end
$var wire 1 z s1 $end
$var wire 1 { s2 $end
$upscope $end

$scope module add6 $end
$var wire 1 B A $end
$var wire 1 R B $end
$var wire 1 c Cin $end
$var wire 1 - S $end
$var wire 1 b Cout $end
$var wire 1 | s0 $end
$var wire 1 } s1 $end
$var wire 1 ~ s2 $end
$upscope $end

$scope module add7 $end
$var wire 1 A A $end
$var wire 1 Q B $end
$var wire 1 b Cin $end
$var wire 1 , S $end
$var wire 1 a Cout $end
$var wire 1 !! s0 $end
$var wire 1 "! s1 $end
$var wire 1 #! s2 $end
$upscope $end

$scope module add8 $end
$var wire 1 @ A $end
$var wire 1 P B $end
$var wire 1 a Cin $end
$var wire 1 + S $end
$var wire 1 ` Cout $end
$var wire 1 $! s0 $end
$var wire 1 %! s1 $end
$var wire 1 &! s2 $end
$upscope $end

$scope module add9 $end
$var wire 1 ? A $end
$var wire 1 O B $end
$var wire 1 ` Cin $end
$var wire 1 * S $end
$var wire 1 _ Cout $end
$var wire 1 '! s0 $end
$var wire 1 (! s1 $end
$var wire 1 )! s2 $end
$upscope $end

$scope module add10 $end
$var wire 1 > A $end
$var wire 1 N B $end
$var wire 1 _ Cin $end
$var wire 1 ) S $end
$var wire 1 ^ Cout $end
$var wire 1 *! s0 $end
$var wire 1 +! s1 $end
$var wire 1 ,! s2 $end
$upscope $end

$scope module add11 $end
$var wire 1 = A $end
$var wire 1 M B $end
$var wire 1 ^ Cin $end
$var wire 1 ( S $end
$var wire 1 ] Cout $end
$var wire 1 -! s0 $end
$var wire 1 .! s1 $end
$var wire 1 /! s2 $end
$upscope $end

$scope module add12 $end
$var wire 1 < A $end
$var wire 1 L B $end
$var wire 1 ] Cin $end
$var wire 1 ' S $end
$var wire 1 \ Cout $end
$var wire 1 0! s0 $end
$var wire 1 1! s1 $end
$var wire 1 2! s2 $end
$upscope $end

$scope module add13 $end
$var wire 1 ; A $end
$var wire 1 K B $end
$var wire 1 \ Cin $end
$var wire 1 & S $end
$var wire 1 [ Cout $end
$var wire 1 3! s0 $end
$var wire 1 4! s1 $end
$var wire 1 5! s2 $end
$upscope $end

$scope module add14 $end
$var wire 1 : A $end
$var wire 1 J B $end
$var wire 1 [ Cin $end
$var wire 1 % S $end
$var wire 1 Z Cout $end
$var wire 1 6! s0 $end
$var wire 1 7! s1 $end
$var wire 1 8! s2 $end
$upscope $end

$scope module add15 $end
$var wire 1 9 A $end
$var wire 1 I B $end
$var wire 1 Z Cin $end
$var wire 1 $ S $end
$var wire 1 4 Cout $end
$var wire 1 9! s0 $end
$var wire 1 :! s1 $end
$var wire 1 ;! s2 $end
$upscope $end
$upscope $end
$upscope $end
$enddefinitions $end
#0
$dumpvars
b0 !
b0 "
0#
b10000 5
b0 6
bx 7
b0 8
03
02
01
00
0/
0.
0-
0,
0+
0*
0)
0(
0'
0&
0%
0$
04
zi
0h
0g
0f
0e
0d
0c
0b
0a
0`
0_
0^
0]
0\
0[
0Z
0j
0k
0l
0m
0n
0o
0p
0q
0r
0s
0t
0u
0v
0w
0x
0y
0z
0{
0|
0}
0~
0!!
0"!
0#!
0$!
0%!
0&!
0'!
0(!
0)!
0*!
0+!
0,!
0-!
0.!
0/!
00!
01!
02!
03!
04!
05!
06!
07!
08!
09!
0:!
0;!
0Y
0X
0W
0V
0U
0T
0S
0R
0Q
0P
0O
0N
0M
0L
0K
0J
0I
0H
0G
0F
0E
0D
0C
0B
0A
0@
0?
0>
0=
0<
0;
0:
09
$end
#10
b0 7
#30
b1 8
1#
1Y
13
#40
b10 8
0#
0Y
03
#50
b11 8
1#
1Y
13
#60
b100 8
0#
0Y
03
#70
b101 8
1#
1Y
13
#80
b110 8
0#
0Y
03
#90
b111 8
1#
1Y
13
#100
b1000 8
0#
0Y
03
#110
b1001 8
1#
1Y
13
#120
b1010 8
0#
0Y
03
#130
b1011 8
1#
1Y
13
#140
b1100 8
0#
0Y
03
#150
b1101 8
1#
1Y
13
#160
b1110 8
0#
0Y
03
#170
b1111 8
1#
1Y
13
#180
b10000 8
b1 7
b1 "
1X
1j
1k
03
1h
12
#190
b0 8
0#
0Y
0k
13
0h
02
#200
b1 8
1#
1Y
1k
03
1h
12
#210
b10 8
0#
0Y
0k
13
0h
02
#220
b11 8
1#
1Y
1k
03
1h
12
#230
b100 8
0#
0Y
0k
13
0h
02
#240
b101 8
1#
1Y
1k
03
1h
12
#250
b110 8
0#
0Y
0k
13
0h
02
#260
b111 8
1#
1Y
1k
03
1h
12
#270
b1000 8
0#
0Y
0k
13
0h
02
#280
b1001 8
1#
1Y
1k
03
1h
12
#290
b1010 8
0#
0Y
0k
13
0h
02
#300
b1011 8
1#
1Y
1k
03
1h
12
#310
b1100 8
0#
0Y
0k
13
0h
02
#320
b1101 8
1#
1Y
1k
03
1h
12
#330
b1110 8
0#
0Y
0k
13
0h
02
#340
b1111 8
1#
1Y
1k
03
1h
12
#350
b10000 8
b10 7
b10 "
0X
1W
0j
1m
0k
13
1n
02
0h
1g
0n
12
11
0g
01
#360
b0 8
0#
0Y
03
#370
b1 8
1#
1Y
13
#380
b10 8
0#
0Y
03
#390
b11 8
1#
1Y
13
#400
b100 8
0#
0Y
03
#410
b101 8
1#
1Y
13
#420
b110 8
0#
0Y
03
#430
b111 8
1#
1Y
13
#440
b1000 8
0#
0Y
03
#450
b1001 8
1#
1Y
13
#460
b1010 8
0#
0Y
03
#470
b1011 8
1#
1Y
13
#480
b1100 8
0#
0Y
03
#490
b1101 8
1#
1Y
13
#500
b1110 8
0#
0Y
03
#510
b1111 8
1#
1Y
13
#520
b10000 8
b11 7
b11 "
1X
1j
1k
03
1h
1n
02
1g
11
#530
b0 8
0#
0Y
0k
13
0h
0n
12
0g
01
#540
b1 8
1#
1Y
1k
03
1h
1n
02
1g
11
#550
b10 8
0#
0Y
0k
13
0h
0n
12
0g
01
#560
b11 8
1#
1Y
1k
03
1h
1n
02
1g
11
#570
b100 8
0#
0Y
0k
13
0h
0n
12
0g
01
#580
b101 8
1#
1Y
1k
03
1h
1n
02
1g
11
#590
b110 8
0#
0Y
0k
13
0h
0n
12
0g
01
#600
b111 8
1#
1Y
1k
03
1h
1n
02
1g
11
#610
b1000 8
0#
0Y
0k
13
0h
0n
12
0g
01
#620
b1001 8
1#
1Y
1k
03
1h
1n
02
1g
11
#630
b1010 8
0#
0Y
0k
13
0h
0n
12
0g
01
#640
b1011 8
1#
1Y
1k
03
1h
1n
02
1g
11
#650
b1100 8
0#
0Y
0k
13
0h
0n
12
0g
01
#660
b1101 8
1#
1Y
1k
03
1h
1n
02
1g
11
#670
b1110 8
0#
0Y
0k
13
0h
0n
12
0g
01
#680
b1111 8
1#
1Y
1k
03
1h
1n
02
1g
11
#690
b10000 8
b100 7
b100 "
0X
0W
1V
0j
0m
1p
0k
13
0n
12
1q
01
0h
0g
1f
02
0q
11
10
0f
00
#700
b0 8
0#
0Y
03
#710
b1 8
1#
1Y
13
#720
b10 8
0#
0Y
03
#730
b11 8
1#
1Y
13
#740
b100 8
0#
0Y
03
#750
b101 8
1#
1Y
13
#760
b110 8
0#
0Y
03
#770
b111 8
1#
1Y
13
#780
b1000 8
0#
0Y
03
#790
b1001 8
1#
1Y
13
#800
b1010 8
0#
0Y
03
#810
b1011 8
1#
1Y
13
#820
b1100 8
0#
0Y
03
#830
b1101 8
1#
1Y
13
#840
b1110 8
0#
0Y
03
#850
b1111 8
1#
1Y
13
#860
b10000 8
b101 7
b101 "
1X
1j
1k
03
1h
12
#870
b0 8
0#
0Y
0k
13
0h
02
#880
b1 8
1#
1Y
1k
03
1h
12
#890
b10 8
0#
0Y
0k
13
0h
02
#900
b11 8
1#
1Y
1k
03
1h
12
#910
b100 8
0#
0Y
0k
13
0h
02
#920
b101 8
1#
1Y
1k
03
1h
12
#930
b110 8
0#
0Y
0k
13
0h
02
#940
b111 8
1#
1Y
1k
03
1h
12
#950
b1000 8
0#
0Y
0k
13
0h
02
#960
b1001 8
1#
1Y
1k
03
1h
12
#970
b1010 8
0#
0Y
0k
13
0h
02
#980
b1011 8
1#
1Y
1k
03
1h
12
#990
b1100 8
0#
0Y
0k
13
0h
02
#1000
b1101 8
1#
1Y
1k
03
1h
12
#1010
b1110 8
0#
0Y
0k
13
0h
02
#1020
b1111 8
1#
1Y
1k
03
1h
12
#1030
b10000 8
b110 7
b110 "
0X
1W
0j
1m
0k
13
1n
02
0h
1g
0n
12
1q
01
0g
1f
0q
11
10
0f
00
#1040
b0 8
0#
0Y
03
#1050
b1 8
1#
1Y
13
#1060
b10 8
0#
0Y
03
#1070
b11 8
1#
1Y
13
#1080
b100 8
0#
0Y
03
#1090
b101 8
1#
1Y
13
#1100
b110 8
0#
0Y
03
#1110
b111 8
1#
1Y
13
#1120
b1000 8
0#
0Y
03
#1130
b1001 8
1#
1Y
13
#1140
b1010 8
0#
0Y
03
#1150
b1011 8
1#
1Y
13
#1160
b1100 8
0#
0Y
03
#1170
b1101 8
1#
1Y
13
#1180
b1110 8
0#
0Y
03
#1190
b1111 8
1#
1Y
13
#1200
b10000 8
b111 7
b111 "
1X
1j
1k
03
1h
1n
02
1g
1q
01
1f
10
#1210
b0 8
0#
0Y
0k
13
0h
0n
12
0g
0q
11
0f
00
#1220
b1 8
1#
1Y
1k
03
1h
1n
02
1g
1q
01
1f
10
#1230
b10 8
0#
0Y
0k
13
0h
0n
12
0g
0q
11
0f
00
#1240
b11 8
1#
1Y
1k
03
1h
1n
02
1g
1q
01
1f
10
#1250
b100 8
0#
0Y
0k
13
0h
0n
12
0g
0q
11
0f
00
#1260
b101 8
1#
1Y
1k
03
1h
1n
02
1g
1q
01
1f
10
#1270
b110 8
0#
0Y
0k
13
0h
0n
12
0g
0q
11
0f
00
#1280
b111 8
1#
1Y
1k
03
1h
1n
02
1g
1q
01
1f
10
#1290
b1000 8
0#
0Y
0k
13
0h
0n
12
0g
0q
11
0f
00
#1300
b1001 8
1#
1Y
1k
03
1h
1n
02
1g
1q
01
1f
10
#1310
b1010 8
0#
0Y
0k
13
0h
0n
12
0g
0q
11
0f
00
#1320
b1011 8
1#
1Y
1k
03
1h
1n
02
1g
1q
01
1f
10
#1330
b1100 8
0#
0Y
0k
13
0h
0n
12
0g
0q
11
0f
00
#1340
b1101 8
1#
1Y
1k
03
1h
1n
02
1g
1q
01
1f
10
#1350
b1110 8
0#
0Y
0k
13
0h
0n
12
0g
0q
11
0f
00
#1360
b1111 8
1#
1Y
1k
03
1h
1n
02
1g
1q
01
1f
10
#1370
b10000 8
b1000 7
b1000 "
0X
0W
0V
1U
0j
0m
0p
1s
0k
13
0n
12
0q
11
1t
00
0h
0g
0f
1e
02
01
0t
10
1/
0e
0/
#1380
b0 8
0#
0Y
03
#1390
b1 8
1#
1Y
13
#1400
b10 8
0#
0Y
03
#1410
b11 8
1#
1Y
13
#1420
b100 8
0#
0Y
03
#1430
b101 8
1#
1Y
13
#1440
b110 8
0#
0Y
03
#1450
b111 8
1#
1Y
13
#1460
b1000 8
0#
0Y
03
#1470
b1001 8
1#
1Y
13
#1480
b1010 8
0#
0Y
03
#1490
b1011 8
1#
1Y
13
#1500
b1100 8
0#
0Y
03
#1510
b1101 8
1#
1Y
13
#1520
b1110 8
0#
0Y
03
#1530
b1111 8
1#
1Y
13
#1540
b10000 8
b1001 7
b1001 "
1X
1j
1k
03
1h
12
#1550
b0 8
0#
0Y
0k
13
0h
02
#1560
b1 8
1#
1Y
1k
03
1h
12
#1570
b10 8
0#
0Y
0k
13
0h
02
#1580
b11 8
1#
1Y
1k
03
1h
12
#1590
b100 8
0#
0Y
0k
13
0h
02
#1600
b101 8
1#
1Y
1k
03
1h
12
#1610
b110 8
0#
0Y
0k
13
0h
02
#1620
b111 8
1#
1Y
1k
03
1h
12
#1630
b1000 8
0#
0Y
0k
13
0h
02
#1640
b1001 8
1#
1Y
1k
03
1h
12
#1650
b1010 8
0#
0Y
0k
13
0h
02
#1660
b1011 8
1#
1Y
1k
03
1h
12
#1670
b1100 8
0#
0Y
0k
13
0h
02
#1680
b1101 8
1#
1Y
1k
03
1h
12
#1690
b1110 8
0#
0Y
0k
13
0h
02
#1700
b1111 8
1#
1Y
1k
03
1h
12
#1710
b10000 8
b1010 7
b1010 "
0X
1W
0j
1m
0k
13
1n
02
0h
1g
0n
12
11
0g
01
#1720
b0 8
0#
0Y
03
#1730
b1 8
1#
1Y
13
#1740
b10 8
0#
0Y
03
#1750
b11 8
1#
1Y
13
#1760
b100 8
0#
0Y
03
#1770
b101 8
1#
1Y
13
#1780
b110 8
0#
0Y
03
#1790
b111 8
1#
1Y
13
#1800
b1000 8
0#
0Y
03
#1810
b1001 8
1#
1Y
13
#1820
b1010 8
0#
0Y
03
#1830
b1011 8
1#
1Y
13
#1840
b1100 8
0#
0Y
03
#1850
b1101 8
1#
1Y
13
#1860
b1110 8
0#
0Y
03
#1870
b1111 8
1#
1Y
13
#1880
b10000 8
b1011 7
b1011 "
1X
1j
1k
03
1h
1n
02
1g
11
#1890
b0 8
0#
0Y
0k
13
0h
0n
12
0g
01
#1900
b1 8
1#
1Y
1k
03
1h
1n
02
1g
11
#1910
b10 8
0#
0Y
0k
13
0h
0n
12
0g
01
#1920
b11 8
1#
1Y
1k
03
1h
1n
02
1g
11
#1930
b100 8
0#
0Y
0k
13
0h
0n
12
0g
01
#1940
b101 8
1#
1Y
1k
03
1h
1n
02
1g
11
#1950
b110 8
0#
0Y
0k
13
0h
0n
12
0g
01
#1960
b111 8
1#
1Y
1k
03
1h
1n
02
1g
11
#1970
b1000 8
0#
0Y
0k
13
0h
0n
12
0g
01
#1980
b1001 8
1#
1Y
1k
03
1h
1n
02
1g
11
#1990
b1010 8
0#
0Y
0k
13
0h
0n
12
0g
01
#2000
b1011 8
1#
1Y
1k
03
1h
1n
02
1g
11
#2010
b1100 8
0#
0Y
0k
13
0h
0n
12
0g
01
#2020
b1101 8
1#
1Y
1k
03
1h
1n
02
1g
11
#2030
b1110 8
0#
0Y
0k
13
0h
0n
12
0g
01
#2040
b1111 8
1#
1Y
1k
03
1h
1n
02
1g
11
#2050
b10000 8
b1100 7
b1100 "
0X
0W
1V
0j
0m
1p
0k
13
0n
12
1q
01
0h
0g
1f
02
0q
11
1t
00
0f
1e
0t
10
1/
0e
0/
#2060
b0 8
0#
0Y
03
#2070
b1 8
1#
1Y
13
#2080
b10 8
0#
0Y
03
#2090
b11 8
1#
1Y
13
#2100
b100 8
0#
0Y
03
#2110
b101 8
1#
1Y
13
#2120
b110 8
0#
0Y
03
#2130
b111 8
1#
1Y
13
#2140
b1000 8
0#
0Y
03
#2150
b1001 8
1#
1Y
13
#2160
b1010 8
0#
0Y
03
#2170
b1011 8
1#
1Y
13
#2180
b1100 8
0#
0Y
03
#2190
b1101 8
1#
1Y
13
#2200
b1110 8
0#
0Y
03
#2210
b1111 8
1#
1Y
13
#2220
b10000 8
b1101 7
b1101 "
1X
1j
1k
03
1h
12
#2230
b0 8
0#
0Y
0k
13
0h
02
#2240
b1 8
1#
1Y
1k
03
1h
12
#2250
b10 8
0#
0Y
0k
13
0h
02
#2260
b11 8
1#
1Y
1k
03
1h
12
#2270
b100 8
0#
0Y
0k
13
0h
02
#2280
b101 8
1#
1Y
1k
03
1h
12
#2290
b110 8
0#
0Y
0k
13
0h
02
#2300
b111 8
1#
1Y
1k
03
1h
12
#2310
b1000 8
0#
0Y
0k
13
0h
02
#2320
b1001 8
1#
1Y
1k
03
1h
12
#2330
b1010 8
0#
0Y
0k
13
0h
02
#2340
b1011 8
1#
1Y
1k
03
1h
12
#2350
b1100 8
0#
0Y
0k
13
0h
02
#2360
b1101 8
1#
1Y
1k
03
1h
12
#2370
b1110 8
0#
0Y
0k
13
0h
02
#2380
b1111 8
1#
1Y
1k
03
1h
12
#2390
b10000 8
b1110 7
b1110 "
0X
1W
0j
1m
0k
13
1n
02
0h
1g
0n
12
1q
01
0g
1f
0q
11
1t
00
0f
1e
0t
10
1/
0e
0/
#2400
b0 8
0#
0Y
03
#2410
b1 8
1#
1Y
13
#2420
b10 8
0#
0Y
03
#2430
b11 8
1#
1Y
13
#2440
b100 8
0#
0Y
03
#2450
b101 8
1#
1Y
13
#2460
b110 8
0#
0Y
03
#2470
b111 8
1#
1Y
13
#2480
b1000 8
0#
0Y
03
#2490
b1001 8
1#
1Y
13
#2500
b1010 8
0#
0Y
03
#2510
b1011 8
1#
1Y
13
#2520
b1100 8
0#
0Y
03
#2530
b1101 8
1#
1Y
13
#2540
b1110 8
0#
0Y
03
#2550
b1111 8
1#
1Y
13
#2560
b10000 8
b1111 7
b1111 "
1X
1j
1k
03
1h
1n
02
1g
1q
01
1f
1t
00
1e
1/
#2570
b0 8
0#
0Y
0k
13
0h
0n
12
0g
0q
11
0f
0t
10
0e
0/
#2580
b1 8
1#
1Y
1k
03
1h
1n
02
1g
1q
01
1f
1t
00
1e
1/
#2590
b10 8
0#
0Y
0k
13
0h
0n
12
0g
0q
11
0f
0t
10
0e
0/
#2600
b11 8
1#
1Y
1k
03
1h
1n
02
1g
1q
01
1f
1t
00
1e
1/
#2610
b100 8
0#
0Y
0k
13
0h
0n
12
0g
0q
11
0f
0t
10
0e
0/
#2620
b101 8
1#
1Y
1k
03
1h
1n
02
1g
1q
01
1f
1t
00
1e
1/
#2630
b110 8
0#
0Y
0k
13
0h
0n
12
0g
0q
11
0f
0t
10
0e
0/
#2640
b111 8
1#
1Y
1k
03
1h
1n
02
1g
1q
01
1f
1t
00
1e
1/
#2650
b1000 8
0#
0Y
0k
13
0h
0n
12
0g
0q
11
0f
0t
10
0e
0/
#2660
b1001 8
1#
1Y
1k
03
1h
1n
02
1g
1q
01
1f
1t
00
1e
1/
#2670
b1010 8
0#
0Y
0k
13
0h
0n
12
0g
0q
11
0f
0t
10
0e
0/
#2680
b1011 8
1#
1Y
1k
03
1h
1n
02
1g
1q
01
1f
1t
00
1e
1/
#2690
b1100 8
0#
0Y
0k
13
0h
0n
12
0g
0q
11
0f
0t
10
0e
0/
#2700
b1101 8
1#
1Y
1k
03
1h
1n
02
1g
1q
01
1f
1t
00
1e
1/
#2710
b1110 8
0#
0Y
0k
13
0h
0n
12
0g
0q
11
0f
0t
10
0e
0/
#2720
b1111 8
1#
1Y
1k
03
1h
1n
02
1g
1q
01
1f
1t
00
1e
1/
#2730
b10000 8
b10000 7
b1 6
b1 !
1H
1l
0j
0k
13
#2740
b0 7
b0 "
0X
0W
0V
0U
0l
1j
0m
0p
0s
0h
1k
03
0n
12
0q
11
0t
10
02
1h
0g
0f
0e
12
01
00
0/
#2750
b0 8
0#
0Y
0k
13
0h
02
#2760
b1 8
1#
1Y
1k
03
1h
12
#2770
b10 8
0#
0Y
0k
13
0h
02
#2780
b11 8
1#
1Y
1k
03
1h
12
#2790
b100 8
0#
0Y
0k
13
0h
02
#2800
b101 8
1#
1Y
1k
03
1h
12
#2810
b110 8
0#
0Y
0k
13
0h
02
#2820
b111 8
1#
1Y
1k
03
1h
12
#2830
b1000 8
0#
0Y
0k
13
0h
02
#2840
b1001 8
1#
1Y
1k
03
1h
12
#2850
b1010 8
0#
0Y
0k
13
0h
02
#2860
b1011 8
1#
1Y
1k
03
1h
12
#2870
b1100 8
0#
0Y
0k
13
0h
02
#2880
b1101 8
1#
1Y
1k
03
1h
12
#2890
b1110 8
0#
0Y
0k
13
0h
02
#2900
b1111 8
1#
1Y
1k
03
1h
12
#2910
b10000 8
b1 7
b1 "
1X
1l
0j
0k
13
#2920
b0 8
0#
0Y
03
#2930
b1 8
1#
1Y
13
#2940
b10 8
0#
0Y
03
#2950
b11 8
1#
1Y
13
#2960
b100 8
0#
0Y
03
#2970
b101 8
1#
1Y
13
#2980
b110 8
0#
0Y
03
#2990
b111 8
1#
1Y
13
#3000
b1000 8
0#
0Y
03
#3010
b1001 8
1#
1Y
13
#3020
b1010 8
0#
0Y
03
#3030
b1011 8
1#
1Y
13
#3040
b1100 8
0#
0Y
03
#3050
b1101 8
1#
1Y
13
#3060
b1110 8
0#
0Y
03
#3070
b1111 8
1#
1Y
13
#3080
b10000 8
b10 7
b10 "
0X
1W
0l
1j
1m
0h
1k
03
1n
02
0n
12
1h
1g
0g
1n
02
11
01
1g
11
#3090
b0 8
0#
0Y
0k
13
0h
0n
12
0g
01
#3100
b1 8
1#
1Y
1k
03
1h
1n
02
1g
11
#3110
b10 8
0#
0Y
0k
13
0h
0n
12
0g
01
#3120
b11 8
1#
1Y
1k
03
1h
1n
02
1g
11
#3130
b100 8
0#
0Y
0k
13
0h
0n
12
0g
01
#3140
b101 8
1#
1Y
1k
03
1h
1n
02
1g
11
#3150
b110 8
0#
0Y
0k
13
0h
0n
12
0g
01
#3160
b111 8
1#
1Y
1k
03
1h
1n
02
1g
11
#3170
b1000 8
0#
0Y
0k
13
0h
0n
12
0g
01
#3180
b1001 8
1#
1Y
1k
03
1h
1n
02
1g
11
#3190
b1010 8
0#
0Y
0k
13
0h
0n
12
0g
01
#3200
b1011 8
1#
1Y
1k
03
1h
1n
02
1g
11
#3210
b1100 8
0#
0Y
0k
13
0h
0n
12
0g
01
#3220
b1101 8
1#
1Y
1k
03
1h
1n
02
1g
11
#3230
b1110 8
0#
0Y
0k
13
0h
0n
12
0g
01
#3240
b1111 8
1#
1Y
1k
03
1h
1n
02
1g
11
#3250
b10000 8
b11 7
b11 "
1X
1l
0j
0k
13
#3260
b0 8
0#
0Y
03
#3270
b1 8
1#
1Y
13
#3280
b10 8
0#
0Y
03
#3290
b11 8
1#
1Y
13
#3300
b100 8
0#
0Y
03
#3310
b101 8
1#
1Y
13
#3320
b110 8
0#
0Y
03
#3330
b111 8
1#
1Y
13
#3340
b1000 8
0#
0Y
03
#3350
b1001 8
1#
1Y
13
#3360
b1010 8
0#
0Y
03
#3370
b1011 8
1#
1Y
13
#3380
b1100 8
0#
0Y
03
#3390
b1101 8
1#
1Y
13
#3400
b1110 8
0#
0Y
03
#3410
b1111 8
1#
1Y
13
#3420
b10000 8
b100 7
b100 "
0X
0W
1V
0l
1j
0m
1p
0h
1k
03
0n
12
1q
01
02
1h
0g
1f
12
0q
11
10
0f
00
#3430
b0 8
0#
0Y
0k
13
0h
02
#3440
b1 8
1#
1Y
1k
03
1h
12
#3450
b10 8
0#
0Y
0k
13
0h
02
#3460
b11 8
1#
1Y
1k
03
1h
12
#3470
b100 8
0#
0Y
0k
13
0h
02
#3480
b101 8
1#
1Y
1k
03
1h
12
#3490
b110 8
0#
0Y
0k
13
0h
02
#3500
b111 8
1#
1Y
1k
03
1h
12
#3510
b1000 8
0#
0Y
0k
13
0h
02
#3520
b1001 8
1#
1Y
1k
03
1h
12
#3530
b1010 8
0#
0Y
0k
13
0h
02
#3540
b1011 8
1#
1Y
1k
03
1h
12
#3550
b1100 8
0#
0Y
0k
13
0h
02
#3560
b1101 8
1#
1Y
1k
03
1h
12
#3570
b1110 8
0#
0Y
0k
13
0h
02
#3580
b1111 8
1#
1Y
1k
03
1h
12
#3590
b10000 8
b101 7
b101 "
1X
1l
0j
0k
13
#3600
b0 8
0#
0Y
03
#3610
b1 8
1#
1Y
13
#3620
b10 8
0#
0Y
03
#3630
b11 8
1#
1Y
13
#3640
b100 8
0#
0Y
03
#3650
b101 8
1#
1Y
13
#3660
b110 8
0#
0Y
03
#3670
b111 8
1#
1Y
13
#3680
b1000 8
0#
0Y
03
#3690
b1001 8
1#
1Y
13
#3700
b1010 8
0#
0Y
03
#3710
b1011 8
1#
1Y
13
#3720
b1100 8
0#
0Y
03
#3730
b1101 8
1#
1Y
13
#3740
b1110 8
0#
0Y
03
#3750
b1111 8
1#
1Y
13
#3760
b10000 8
b110 7
b110 "
0X
1W
0l
1j
1m
0h
1k
03
1n
02
0n
12
1h
1g
0g
1n
02
1q
01
0q
11
1g
1f
0f
1q
01
10
00
1f
10
#3770
b0 8
0#
0Y
0k
13
0h
0n
12
0g
0q
11
0f
00
#3780
b1 8
1#
1Y
1k
03
1h
1n
02
1g
1q
01
1f
10
#3790
b10 8
0#
0Y
0k
13
0h
0n
12
0g
0q
11
0f
00
#3800
b11 8
1#
1Y
1k
03
1h
1n
02
1g
1q
01
1f
10
#3810
b100 8
0#
0Y
0k
13
0h
0n
12
0g
0q
11
0f
00
#3820
b101 8
1#
1Y
1k
03
1h
1n
02
1g
1q
01
1f
10
#3830
b110 8
0#
0Y
0k
13
0h
0n
12
0g
0q
11
0f
00
#3840
b111 8
1#
1Y
1k
03
1h
1n
02
1g
1q
01
1f
10
#3850
b1000 8
0#
0Y
0k
13
0h
0n
12
0g
0q
11
0f
00
#3860
b1001 8
1#
1Y
1k
03
1h
1n
02
1g
1q
01
1f
10
#3870
b1010 8
0#
0Y
0k
13
0h
0n
12
0g
0q
11
0f
00
#3880
b1011 8
1#
1Y
1k
03
1h
1n
02
1g
1q
01
1f
10
#3890
b1100 8
0#
0Y
0k
13
0h
0n
12
0g
0q
11
0f
00
#3900
b1101 8
1#
1Y
1k
03
1h
1n
02
1g
1q
01
1f
10
#3910
b1110 8
0#
0Y
0k
13
0h
0n
12
0g
0q
11
0f
00
#3920
b1111 8
1#
1Y
1k
03
1h
1n
02
1g
1q
01
1f
10
#3930
b10000 8
b111 7
b111 "
1X
1l
0j
0k
13
#3940
b0 8
0#
0Y
03
#3950
b1 8
1#
1Y
13
#3960
b10 8
0#
0Y
03
#3970
b11 8
1#
1Y
13
#3980
b100 8
0#
0Y
03
